…
# set seed
set.seed(130)
# Set indices
train <- sample(1:nrow(data1), size =nrow(data1)*0.7)
test <- setdiff(1:nrow(data1), train)

# Make Train and Test Sets  

data1Train <- data1[train, ]
data1Test <- data1[test, ]

data1

## # A tibble: 5,701 x 8
##    logShares data_channel_is~ kw_max_avg self_reference_~
##        <dbl>            <dbl>      <dbl>            <dbl>
##  1         1                0      2272.            2357.
##  2         1                0      4975.            9300 
##  3         0                0      3229.               0 
##  4         1                0      4975.            2500 
##  5         1                0      7246.           11950 
##  6         0                0      2527.               0 
##  7         1                0      2272.            3567.
##  8         0                0      2737.            3450 
##  9         0                0      3683.            2522.
## 10         1                0      2195.            1700 
## # ... with 5,691 more rows, and 4 more variables:
## #   kw_min_avg <dbl>, kw_avg_avg <dbl>,
## #   self_reference_max_shares <dbl>,
## #   global_subjectivity <dbl>
…
From the past homework assigment, it seems that each of the ensemble methods that we covered are equally efficient. I am going to use the Random Forest model to fit my data. Overall, Random Forest is better than bagging and boosting trees take longer to do. I will add a class variable (less than 1400, more than 1400) that I will predict on the test data.

Fix Train and Test Data

dataTrain <- dataTrain %>% mutate(group = ifelse(shares <= 1400, "less than 1400", "more than 1400")) %>%
  select(group, kw_max_avg, self_reference_avg_sharess, 
         kw_min_avg, kw_avg_avg, self_reference_max_shares, 
         global_subjectivity) %>% collect()

dataTrain$group <- as.factor(dataTrain$group)

dataTrain

## # A tibble: 3,990 x 7
##    group kw_max_avg self_reference_~ kw_min_avg kw_avg_avg
##    <fct>      <dbl>            <dbl>      <dbl>      <dbl>
##  1 less~      3752.             488          0       2566.
##  2 more~      6027.            1700          0       3629.
##  3 less~      3582.           37103.         0       2010.
##  4 more~      7863.            2700       3343.      5188.
##  5 less~      4965.            1329.         0       2953.
##  6 less~     10001.            5800        904.      3380.
##  7 less~      5298.            1300       2861.      3974.
##  8 less~      8941.            1300       3463.      6131.
##  9 more~      4910.            3079.         0       2459.
## 10 more~      4584.            2033.      1356.      2932.
## # ... with 3,980 more rows, and 2 more variables:
## #   self_reference_max_shares <dbl>,
## #   global_subjectivity <dbl>
…
