…
# set seed
set.seed(130)
# Set indices
train <- sample(1:nrow(data1), size =nrow(data1)*0.7)
test <- setdiff(1:nrow(data1), train)

# Make Train and Test Sets  

data1Train <- data1[train, ]
data1Test <- data1[test, ]

data1
```

    ## # A tibble: 5,701 x 7
    ##    logShares kw_avg_avg kw_avg_min kw_min_avg LDA_03
    ##        <dbl>      <dbl>      <dbl>      <dbl>  <dbl>
    ##  1         1      1268.       336           0 0.0200
    ##  2         1      2700.       528.          0 0.886 
    ##  3         0      1674.       378.          0 0.0400
    ##  4         1      1734.       395.          0 0.122 
    ##  5         1      3297.       404.          0 0.885 
    ##  6         0      1350.       457.          0 0.0250
    ##  7         1      1120.       375.          0 0.0286
    ##  8         0      1496.       523.          0 0.0200
    ##  9         0      1703.       255.        302 0.0226
    ## 10         1      1579.       508.          0 0.0333
    ## # ... with 5,691 more rows, and 2 more variables:
    ## #   num_imgs <dbl>, num_keywords <dbl>
…
## Fix Train and Test Data

``` r
dataTrain <- dataTrain %>% mutate(group = ifelse(shares <= 1400, "less than 1400", "more than 1400")) %>%
  select(group, everything()) %>% collect()

dataTrain$group <- as.factor(dataTrain$group)

dataTrain
```

    ## # A tibble: 3,990 x 8
    ##    group shares kw_avg_avg kw_avg_min kw_min_avg
    ##    <fct>  <dbl>      <dbl>      <dbl>      <dbl>
    ##  1 less~    777      2566.       188.         0 
    ##  2 more~   6500      3629.       133.         0 
    ##  3 less~    796      2010.       266.         0 
    ##  4 more~   1500      5188.       145.      3343.
    ##  5 less~   1200      2953.       434.         0 
    ##  6 less~    902      3380.       353.       904.
    ##  7 less~    611      3974.       120.      2861.
    ##  8 less~   1100      6131.       124.      3463.
    ##  9 more~   2100      2459.       414.         0 
    ## 10 more~   3800      2932.       169       1356.
    ## # ... with 3,980 more rows, and 3 more variables:
    ## #   LDA_03 <dbl>, num_imgs <dbl>, num_keywords <dbl>
…
