…
# set seed
set.seed(130)
# Set indices
train <- sample(1:nrow(data1), size =nrow(data1)*0.7)
test <- setdiff(1:nrow(data1), train)

# Make Train and Test Sets  

data1Train <- data1[train, ]
data1Test <- data1[test, ]

data1
```

    ## # A tibble: 6,661 x 7
    ##    logShares kw_avg_avg kw_avg_min kw_min_avg LDA_03
    ##        <dbl>      <dbl>      <dbl>      <dbl>  <dbl>
    ##  1         0          0          0          0 0.0413
    ##  2         0          0          0          0 0.0501
    ##  3         1          0          0          0 0.0333
    ##  4         0          0          0          0 0.0289
    ##  5         0          0          0          0 0.0286
    ##  6         0          0          0          0 0.0222
    ##  7         0          0          0          0 0.0200
    ##  8         0          0          0          0 0.0222
    ##  9         1          0          0          0 0.0297
    ## 10         0          0          0          0 0.0400
    ## # ... with 6,651 more rows, and 2 more variables:
    ## #   num_imgs <dbl>, num_keywords <dbl>
…
## Fix Train and Test Data

``` r
dataTrain <- dataTrain %>% mutate(group = ifelse(shares <= 1400, "less than 1400", "more than 1400")) %>%
  select(group, everything()) %>% collect()

dataTrain$group <- as.factor(dataTrain$group)

dataTrain
```

    ## # A tibble: 4,662 x 8
    ##    group shares kw_avg_avg kw_avg_min kw_min_avg
    ##    <fct>  <dbl>      <dbl>      <dbl>      <dbl>
    ##  1 more~   2900      4102.      323.       1818.
    ##  2 less~   1100      2659.      158.       1809.
    ##  3 less~   1300      3529.      494.       1100 
    ##  4 more~   6800      3953.     1170        2969.
    ##  5 less~    711      2229.      105.       1051.
    ##  6 less~   1100      1933.      341.          0 
    ##  7 less~    713      3487.      216.       1783.
    ##  8 less~    725      2879.       50.8      2623.
    ##  9 more~   7800      5375.      108.       3510.
    ## 10 less~   1200      2824.       69.5         0 
    ## # ... with 4,652 more rows, and 3 more variables:
    ## #   LDA_03 <dbl>, num_imgs <dbl>, num_keywords <dbl>
…
# set seed
set.seed(130)
# Set indices
train <- sample(1:nrow(data1), size =nrow(data1)*0.7)
test <- setdiff(1:nrow(data1), train)

# Make Train and Test Sets  

data1Train <- data1[train, ]
data1Test <- data1[test, ]

data1
```

    ## # A tibble: 6,661 x 7
    ##    logShares kw_avg_avg kw_avg_min kw_min_avg LDA_03
    ##        <dbl>      <dbl>      <dbl>      <dbl>  <dbl>
    ##  1         0          0          0          0 0.0413
    ##  2         0          0          0          0 0.0501
    ##  3         1          0          0          0 0.0333
    ##  4         0          0          0          0 0.0289
    ##  5         0          0          0          0 0.0286
    ##  6         0          0          0          0 0.0222
    ##  7         0          0          0          0 0.0200
    ##  8         0          0          0          0 0.0222
    ##  9         1          0          0          0 0.0297
    ## 10         0          0          0          0 0.0400
    ## # ... with 6,651 more rows, and 2 more variables:
    ## #   num_imgs <dbl>, num_keywords <dbl>
…
## Fix Train and Test Data

``` r
dataTrain <- dataTrain %>% mutate(group = ifelse(shares <= 1400, "less than 1400", "more than 1400")) %>%
  select(group, everything()) %>% collect()

dataTrain$group <- as.factor(dataTrain$group)

dataTrain
```

    ## # A tibble: 4,662 x 8
    ##    group shares kw_avg_avg kw_avg_min kw_min_avg
    ##    <fct>  <dbl>      <dbl>      <dbl>      <dbl>
    ##  1 more~   2900      4102.      323.       1818.
    ##  2 less~   1100      2659.      158.       1809.
    ##  3 less~   1300      3529.      494.       1100 
    ##  4 more~   6800      3953.     1170        2969.
    ##  5 less~    711      2229.      105.       1051.
    ##  6 less~   1100      1933.      341.          0 
    ##  7 less~    713      3487.      216.       1783.
    ##  8 less~    725      2879.       50.8      2623.
    ##  9 more~   7800      5375.      108.       3510.
    ## 10 less~   1200      2824.       69.5         0 
    ## # ... with 4,652 more rows, and 3 more variables:
    ## #   LDA_03 <dbl>, num_imgs <dbl>, num_keywords <dbl>
…
