…
# set seed
set.seed(130)
# Set indices
train <- sample(1:nrow(data1), size =nrow(data1)*0.7)
test <- setdiff(1:nrow(data1), train)

# Make Train and Test Sets  

data1Train <- data1[train, ]
data1Test <- data1[test, ]

data1

## # A tibble: 6,661 x 8
##    logShares data_channel_is~ kw_max_avg self_reference_~
##        <dbl>            <dbl>      <dbl>            <dbl>
##  1         0                0          0             496 
##  2         0                0          0               0 
##  3         1                0          0             918 
##  4         0                0          0               0 
##  5         0                0          0            3151.
##  6         0                0          0            8500 
##  7         0                0          0            3151.
##  8         0                0          0            3151.
##  9         1                0          0               0 
## 10         0                0          0               0 
## # ... with 6,651 more rows, and 4 more variables:
## #   kw_min_avg <dbl>, kw_avg_avg <dbl>,
## #   self_reference_max_shares <dbl>,
## #   global_subjectivity <dbl>
…
From the past homework assigment, it seems that each of the ensemble methods that we covered are equally efficient. I am going to use the Random Forest model to fit my data. Overall, Random Forest is better than bagging and boosting trees take longer to do. I will add a class variable (less than 1400, more than 1400) that I will predict on the test data.

Fix Train and Test Data

dataTrain <- dataTrain %>% mutate(group = ifelse(shares <= 1400, "less than 1400", "more than 1400")) %>%
  select(group, kw_max_avg, self_reference_avg_sharess, 
         kw_min_avg, kw_avg_avg, self_reference_max_shares, 
         global_subjectivity) %>% collect()

dataTrain$group <- as.factor(dataTrain$group)

dataTrain

## # A tibble: 4,662 x 7
##    group kw_max_avg self_reference_~ kw_min_avg
##    <fct>      <dbl>            <dbl>      <dbl>
##  1 more~     10975             9340       1818.
##  2 less~      3535.            1656.      1809.
##  3 less~      5605.            3020       1100 
##  4 more~      7700             1400       2969.
##  5 less~      3272.            1000       1051.
##  6 less~      3927.            2600          0 
##  7 less~      7632              914       1783.
##  8 less~      3281.            5450       2623.
##  9 more~      7182.            7950       3510.
## 10 less~      4275.            1024.         0 
## # ... with 4,652 more rows, and 3 more variables:
## #   kw_avg_avg <dbl>, self_reference_max_shares <dbl>,
## #   global_subjectivity <dbl>
…
