…
``` r
#Select only certain variables for a specific day  
data <- data %>% filter(weekday_is_monday == 1) %>% 
  select(shares, n_tokens_title, num_keywords, contains("data_channel_is"), kw_max_min, kw_max_max, global_rate_positive_words, global_rate_negative_words) %>% collect()

data
```

    ## # A tibble: 6,661 x 13
    ##    shares n_tokens_title num_keywords data_channel_is~ data_channel_is~
    ##     <dbl>          <dbl>        <dbl>            <dbl>            <dbl>
    ##  1    593             12            5                0                1
    ##  2    711              9            4                0                0
    ##  3   1500              9            6                0                0
    ##  4   1200              9            7                0                1
    ##  5    505             13            7                0                0
    ##  6    855             10            9                0                0
    ##  7    556              8           10                1                0
    ##  8    891             12            9                0                0
    ##  9   3600             11            7                0                0
    ## 10    710             10            5                0                0
    ## # ... with 6,651 more rows, and 8 more variables: data_channel_is_bus <dbl>,
    ## #   data_channel_is_socmed <dbl>, data_channel_is_tech <dbl>,
    ## #   data_channel_is_world <dbl>, kw_max_min <dbl>, kw_max_max <dbl>,
    ## #   global_rate_positive_words <dbl>, global_rate_negative_words <dbl>
…
