…
# set seed
set.seed(130)
# Set indices
train <- sample(1:nrow(data1), size =nrow(data1)*0.7)
test <- setdiff(1:nrow(data1), train)

# Make Train and Test Sets  

data1Train <- data1[train, ]
data1Test <- data1[test, ]

data1

## # A tibble: 2,453 x 8
##    logShares data_channel_is~ kw_max_avg self_reference_~
##        <dbl>            <dbl>      <dbl>            <dbl>
##  1         1                0      2414.               0 
##  2         1                0      2414.            1700 
##  3         1                0      3579.            3700 
##  4         1                0      2414.            1000 
##  5         1                0      7054.               0 
##  6         1                0      3482.            4718.
##  7         1                1      7250             1700 
##  8         1                0      3250             1541.
##  9         1                0      3931.               0 
## 10         1                0      3833.               0 
## # ... with 2,443 more rows, and 4 more variables:
## #   kw_min_avg <dbl>, kw_avg_avg <dbl>,
## #   self_reference_max_shares <dbl>,
## #   global_subjectivity <dbl>
…
From the past homework assigment, it seems that each of the ensemble methods that we covered are equally efficient. I am going to use the Random Forest model to fit my data. Overall, Random Forest is better than bagging and boosting trees take longer to do. I will add a class variable (less than 1400, more than 1400) that I will predict on the test data.

Fix Train and Test Data

dataTrain <- dataTrain %>% mutate(group = ifelse(shares <= 1400, "less than 1400", "more than 1400")) %>%
  select(group, kw_max_avg, self_reference_avg_sharess, 
         kw_min_avg, kw_avg_avg, self_reference_max_shares, 
         global_subjectivity) %>% collect()

dataTrain$group <- as.factor(dataTrain$group)

dataTrain

## # A tibble: 1,717 x 7
##    group kw_max_avg self_reference_~ kw_min_avg kw_avg_avg
##    <fct>      <dbl>            <dbl>      <dbl>      <dbl>
##  1 less~      6414.            9169.      2617.      3770.
##  2 more~      5526.               0       2600       3672.
##  3 more~      3575.            4995        789       2690.
##  4 less~      3510.            1100       2198.      2844.
##  5 more~      5246.           70750          0       3541.
##  6 more~      3488.            1300       2169.      2646.
##  7 more~      4124.               0          0       2309.
##  8 more~      8933.           26300          0       3950.
##  9 more~      2631.               0          0       1444.
## 10 more~      5853.            6000          0       3787.
## # ... with 1,707 more rows, and 2 more variables:
## #   self_reference_max_shares <dbl>,
## #   global_subjectivity <dbl>
…
