…
# set seed
set.seed(130)
# Set indices
train <- sample(1:nrow(data1), size =nrow(data1)*0.7)
test <- setdiff(1:nrow(data1), train)

# Make Train and Test Sets  

data1Train <- data1[train, ]
data1Test <- data1[test, ]

data1
```

    ## # A tibble: 2,453 x 7
    ##    logShares kw_avg_avg
    ##        <dbl>      <dbl>
    ##  1         1      1480.
    ##  2         1      1604.
    ##  3         1      1759.
    ##  4         1      1731.
    ##  5         1      2342.
    ##  6         1      1685.
    ##  7         1      2187.
    ##  8         1      2217.
    ##  9         1      1458.
    ## 10         1      1394.
    ## # ... with 2,443 more rows,
    ## #   and 5 more variables:
    ## #   kw_avg_min <dbl>,
    ## #   kw_min_avg <dbl>,
    ## #   LDA_03 <dbl>,
    ## #   num_imgs <dbl>,
    ## #   num_keywords <dbl>
…
## Fix Train and Test Data

``` r
dataTrain <- dataTrain %>% mutate(group = ifelse(shares <= 1400, "less than 1400", "more than 1400")) %>%
  select(group, everything()) %>% collect()

dataTrain$group <- as.factor(dataTrain$group)

dataTrain
```

    ## # A tibble: 1,717 x 8
    ##    group shares kw_avg_avg
    ##    <fct>  <dbl>      <dbl>
    ##  1 less~   1200      3770.
    ##  2 more~   4100      3672.
    ##  3 more~   3300      2690.
    ##  4 less~   1100      2844.
    ##  5 more~   6900      3541.
    ##  6 more~   2100      2646.
    ##  7 more~   1700      2309.
    ##  8 more~   1800      3950.
    ##  9 more~   5600      1444.
    ## 10 more~   2600      3787.
    ## # ... with 1,707 more rows,
    ## #   and 5 more variables:
    ## #   kw_avg_min <dbl>,
    ## #   kw_min_avg <dbl>,
    ## #   LDA_03 <dbl>,
    ## #   num_imgs <dbl>,
    ## #   num_keywords <dbl>
…
