…
# set seed
set.seed(130)
# Set indices
train <- sample(1:nrow(data1), size =nrow(data1)*0.7)
test <- setdiff(1:nrow(data1), train)

# Make Train and Test Sets  

data1Train <- data1[train, ]
data1Test <- data1[test, ]

data1

## # A tibble: 2,737 x 8
##    logShares data_channel_is~ kw_max_avg self_reference_~
##        <dbl>            <dbl>      <dbl>            <dbl>
##  1         1                0      2539.               0 
##  2         0                0      3725             1367.
##  3         1                0      3646.            4600 
##  4         1                0      3405                0 
##  5         1                0      2600.            2700 
##  6         1                0      2539.            3022.
##  7         1                0      3329.            4800 
##  8         0                0      4257.            1333.
##  9         0                0      7139.            1575 
## 10         1                0      3646.            6700 
## # ... with 2,727 more rows, and 4 more variables:
## #   kw_min_avg <dbl>, kw_avg_avg <dbl>,
## #   self_reference_max_shares <dbl>,
## #   global_subjectivity <dbl>
…
From the past homework assigment, it seems that each of the ensemble methods that we covered are equally efficient. I am going to use the Random Forest model to fit my data. Overall, Random Forest is better than bagging and boosting trees take longer to do. I will add a class variable (less than 1400, more than 1400) that I will predict on the test data.

Fix Train and Test Data

dataTrain <- dataTrain %>% mutate(group = ifelse(shares <= 1400, "less than 1400", "more than 1400")) %>%
  select(group, kw_max_avg, self_reference_avg_sharess, 
         kw_min_avg, kw_avg_avg, self_reference_max_shares, 
         global_subjectivity) %>% collect()

dataTrain$group <- as.factor(dataTrain$group)

dataTrain

## # A tibble: 1,915 x 7
##    group kw_max_avg self_reference_~ kw_min_avg kw_avg_avg
##    <fct>      <dbl>            <dbl>      <dbl>      <dbl>
##  1 less~      7253.            19450         0       3958.
##  2 more~      5901.             1900      2754.      4077.
##  3 more~      8995.             4600      3421.      5371.
##  4 more~      8086.             2200      2459.      5055.
##  5 less~      4859.             1500         0       2520.
##  6 less~      3915.             1500      2376.      3082.
##  7 less~      4728.            40650         0       2989.
##  8 more~      6615.             1579       646       2816.
##  9 more~      8061.              989         0       4676.
## 10 less~      3204.                0         0       2263.
## # ... with 1,905 more rows, and 2 more variables:
## #   self_reference_max_shares <dbl>,
## #   global_subjectivity <dbl>
…
