…
# set seed
set.seed(130)
# Set indices
train <- sample(1:nrow(data1), size =nrow(data1)*0.7)
test <- setdiff(1:nrow(data1), train)

# Make Train and Test Sets  

data1Train <- data1[train, ]
data1Test <- data1[test, ]

data1
```

    ## # A tibble: 2,737 x 7
    ##    logShares kw_avg_avg
    ##        <dbl>      <dbl>
    ##  1         1      1295.
    ##  2         0      2232.
    ##  3         1      2000.
    ##  4         1      1549.
    ##  5         1      1470.
    ##  6         1      1707.
    ##  7         1      2411.
    ##  8         0      1448.
    ##  9         0      2710.
    ## 10         1      1460.
    ## # ... with 2,727 more rows,
    ## #   and 5 more variables:
    ## #   kw_avg_min <dbl>,
    ## #   kw_min_avg <dbl>,
    ## #   LDA_03 <dbl>,
    ## #   num_imgs <dbl>,
    ## #   num_keywords <dbl>
…
## Fix Train and Test Data

``` r
dataTrain <- dataTrain %>% mutate(group = ifelse(shares <= 1400, "less than 1400", "more than 1400")) %>%
  select(group, everything()) %>% collect()

dataTrain$group <- as.factor(dataTrain$group)

dataTrain
```

    ## # A tibble: 1,915 x 8
    ##    group shares kw_avg_avg
    ##    <fct>  <dbl>      <dbl>
    ##  1 less~   1300      3958.
    ##  2 more~  11200      4077.
    ##  3 more~   3900      5371.
    ##  4 more~   4000      5055.
    ##  5 less~   1400      2520.
    ##  6 less~   1300      3082.
    ##  7 less~   1100      2989.
    ##  8 more~   3000      2816.
    ##  9 more~   4800      4676.
    ## 10 less~   1100      2263.
    ## # ... with 1,905 more rows,
    ## #   and 5 more variables:
    ## #   kw_avg_min <dbl>,
    ## #   kw_min_avg <dbl>,
    ## #   LDA_03 <dbl>,
    ## #   num_imgs <dbl>,
    ## #   num_keywords <dbl>
…
