…
# set seed
set.seed(130)
# Set indices
train <- sample(1:nrow(data1), size =nrow(data1)*0.7)
test <- setdiff(1:nrow(data1), train)

# Make Train and Test Sets  

data1Train <- data1[train, ]
data1Test <- data1[test, ]

data1
```

    ## # A tibble: 7,267 x 7
    ##    logShares kw_avg_avg kw_avg_min kw_min_avg LDA_03
    ##        <dbl>      <dbl>      <dbl>      <dbl>  <dbl>
    ##  1         0      2144.       614.         0  0.0250
    ##  2         0      2295.       495.         0  0.599 
    ##  3         1      1354.       448.         0  0.0426
    ##  4         0      2061.       500.       593  0.0288
    ##  5         0      1545.       487.         0  0.0335
    ##  6         0      1321.       544.         0  0.0333
    ##  7         1      1023.       577          0  0.0222
    ##  8         0       924.       466.         0  0.238 
    ##  9         1      1756.       409.         0  0.420 
    ## 10         0      1747.       751.      1453. 0.231 
    ## # ... with 7,257 more rows, and 2 more variables:
    ## #   num_imgs <dbl>, num_keywords <dbl>
…
## Fix Train and Test Data

``` r
dataTrain <- dataTrain %>% mutate(group = ifelse(shares <= 1400, "less than 1400", "more than 1400")) %>%
  select(group, everything()) %>% collect()

dataTrain$group <- as.factor(dataTrain$group)

dataTrain
```

    ## # A tibble: 5,086 x 8
    ##    group shares kw_avg_avg kw_avg_min kw_min_avg
    ##    <fct>  <dbl>      <dbl>      <dbl>      <dbl>
    ##  1 more~   3200      3228.      620.          0 
    ##  2 more~   7200      4414.      262.       2710.
    ##  3 more~   2000      2527.      484.          0 
    ##  4 less~   1300      3057.      334.       1900 
    ##  5 less~   1300      2882.      120.       2401.
    ##  6 less~    606      1883.      391.          0 
    ##  7 more~  17800      2242.       22.7         0 
    ##  8 less~   1000      4678.      223.       2011.
    ##  9 more~   3300      3126.      274.          0 
    ## 10 more~   1800      3076.      237           0 
    ## # ... with 5,076 more rows, and 3 more variables:
    ## #   LDA_03 <dbl>, num_imgs <dbl>, num_keywords <dbl>
…
