…
# set seed
set.seed(130)
# Set indices
train <- sample(1:nrow(data1), size =nrow(data1)*0.7)
test <- setdiff(1:nrow(data1), train)

# Make Train and Test Sets  

data1Train <- data1[train, ]
data1Test <- data1[test, ]

data1

## # A tibble: 7,267 x 8
##    logShares data_channel_is~ kw_max_avg self_reference_~
##        <dbl>            <dbl>      <dbl>            <dbl>
##  1         0                0      7500             1268.
##  2         0                0      5439.            1970 
##  3         1                0      2432.               0 
##  4         0                0      4978              447 
##  5         0                0      2432.           12500 
##  6         0                0      2241.               0 
##  7         1                0      2241.               0 
##  8         0                0      2241.               0 
##  9         1                0      3583.              40 
## 10         0                0      2241.            1450 
## # ... with 7,257 more rows, and 4 more variables:
## #   kw_min_avg <dbl>, kw_avg_avg <dbl>,
## #   self_reference_max_shares <dbl>,
## #   global_subjectivity <dbl>
…
From the past homework assigment, it seems that each of the ensemble methods that we covered are equally efficient. I am going to use the Random Forest model to fit my data. Overall, Random Forest is better than bagging and boosting trees take longer to do. I will add a class variable (less than 1400, more than 1400) that I will predict on the test data.

Fix Train and Test Data

dataTrain <- dataTrain %>% mutate(group = ifelse(shares <= 1400, "less than 1400", "more than 1400")) %>%
  select(group, kw_max_avg, self_reference_avg_sharess, 
         kw_min_avg, kw_avg_avg, self_reference_max_shares, 
         global_subjectivity) %>% collect()

dataTrain$group <- as.factor(dataTrain$group)

dataTrain

## # A tibble: 5,086 x 7
##    group kw_max_avg self_reference_~ kw_min_avg kw_avg_avg
##    <fct>      <dbl>            <dbl>      <dbl>      <dbl>
##  1 more~      5488.            2976.         0       3228.
##  2 more~      6625.            5650       2710.      4414.
##  3 more~      4614.            1650          0       2527.
##  4 less~      3869.            2350       1900       3057.
##  5 less~      3306.           15200       2401.      2882.
##  6 less~      3214.             786          0       1883.
##  7 more~      5206.            5700          0       2242.
##  8 less~      8238.            5800       2011.      4678.
##  9 more~      4517.            9000          0       3126.
## 10 more~      7097.             670          0       3076.
## # ... with 5,076 more rows, and 2 more variables:
## #   self_reference_max_shares <dbl>,
## #   global_subjectivity <dbl>
…
