…
# set seed
set.seed(130)
# Set indices
train <- sample(1:nrow(data1), size =nrow(data1)*0.7)
test <- setdiff(1:nrow(data1), train)

# Make Train and Test Sets  

data1Train <- data1[train, ]
data1Test <- data1[test, ]

data1

## # A tibble: 7,390 x 8
##    logShares data_channel_is~ kw_max_avg self_reference_~
##        <dbl>            <dbl>      <dbl>            <dbl>
##  1         0                0      2019.            3100 
##  2         0                0      2019.               0 
##  3         1                0      2318.             727 
##  4         0                0      2019.             951 
##  5         0                0      2193.            1300 
##  6         0                0      2154.               0 
##  7         1                0      2103.            3151.
##  8         1                0      4660.            2700 
##  9         0                0      5700                0 
## 10         1                0      2019.           20900 
## # ... with 7,380 more rows, and 4 more variables:
## #   kw_min_avg <dbl>, kw_avg_avg <dbl>,
## #   self_reference_max_shares <dbl>,
## #   global_subjectivity <dbl>
…
From the past homework assigment, it seems that each of the ensemble methods that we covered are equally efficient. I am going to use the Random Forest model to fit my data. Overall, Random Forest is better than bagging and boosting trees take longer to do. I will add a class variable (less than 1400, more than 1400) that I will predict on the test data.

Fix Train and Test Data

dataTrain <- dataTrain %>% mutate(group = ifelse(shares <= 1400, "less than 1400", "more than 1400")) %>%
  select(group, kw_max_avg, self_reference_avg_sharess, 
         kw_min_avg, kw_avg_avg, self_reference_max_shares, 
         global_subjectivity) %>% collect()

dataTrain$group <- as.factor(dataTrain$group)

dataTrain

## # A tibble: 5,173 x 7
##    group kw_max_avg self_reference_~ kw_min_avg kw_avg_avg
##    <fct>      <dbl>            <dbl>      <dbl>      <dbl>
##  1 more~      4650             1833.         0       2737.
##  2 less~      3430.            1800       1005.      2582.
##  3 less~      5386.               0          0       2923.
##  4 less~      7240.            2531       3524.      5502.
##  5 more~      4000             6646.      1533.      3227.
##  6 less~      4124.            1900          0       2696.
##  7 less~      3954.            3400       2879.      3421.
##  8 less~      3272.            6788.         0       1919.
##  9 less~      4346.             876.      1295.      2857.
## 10 more~      7787.            3800       3484.      5258.
## # ... with 5,163 more rows, and 2 more variables:
## #   self_reference_max_shares <dbl>,
## #   global_subjectivity <dbl>
…
