…
# set seed
set.seed(130)
# Set indices
train <- sample(1:nrow(data1), size =nrow(data1)*0.7)
test <- setdiff(1:nrow(data1), train)

# Make Train and Test Sets  

data1Train <- data1[train, ]
data1Test <- data1[test, ]

data1
```

    ## # A tibble: 7,390 x 7
    ##    logShares kw_avg_avg kw_avg_min kw_min_avg LDA_03
    ##        <dbl>      <dbl>      <dbl>      <dbl>  <dbl>
    ##  1         0       804.       422.          0 0.0334
    ##  2         0       728.       408.          0 0.200 
    ##  3         1      1185.       300.          0 0.0200
    ##  4         0      1114.       461           0 0.0510
    ##  5         0       885.       581.          0 0.0201
    ##  6         0      1191.       408.          0 0.267 
    ##  7         1      1539.       306.        480 0.0250
    ##  8         1      1400.       531           0 0.733 
    ##  9         0      1803.      1007.          0 0.0200
    ## 10         1       714.       405           0 0.0401
    ## # ... with 7,380 more rows, and 2 more variables:
    ## #   num_imgs <dbl>, num_keywords <dbl>
…
## Fix Train and Test Data

``` r
dataTrain <- dataTrain %>% mutate(group = ifelse(shares <= 1400, "less than 1400", "more than 1400")) %>%
  select(group, everything()) %>% collect()

dataTrain$group <- as.factor(dataTrain$group)

dataTrain
```

    ## # A tibble: 5,173 x 8
    ##    group shares kw_avg_avg kw_avg_min kw_min_avg
    ##    <fct>  <dbl>      <dbl>      <dbl>      <dbl>
    ##  1 more~   3800      2737.      615.          0 
    ##  2 less~    633      2582.      222.       1005.
    ##  3 less~    178      2923.      223           0 
    ##  4 less~   1400      5502.      176.       3524.
    ##  5 more~   2200      3227.      391.       1533.
    ##  6 less~   1300      2696.      318.          0 
    ##  7 less~    927      3421.      265        2879.
    ##  8 less~    674      1919.       65.6         0 
    ##  9 less~   1000      2857.      117.       1295.
    ## 10 more~  11100      5258.      114.       3484.
    ## # ... with 5,163 more rows, and 3 more variables:
    ## #   LDA_03 <dbl>, num_imgs <dbl>, num_keywords <dbl>
…
