…
# set seed
set.seed(130)
# Set indices
train <- sample(1:nrow(data1), size =nrow(data1)*0.7)
test <- setdiff(1:nrow(data1), train)

# Make Train and Test Sets  

data1Train <- data1[train, ]
data1Test <- data1[test, ]

data1

## # A tibble: 7,435 x 7
##    logShares kw_avg_avg kw_avg_min kw_min_avg LDA_03
##        <dbl>      <dbl>      <dbl>      <dbl>  <dbl>
##  1         0       707.       469.         0  0.491 
##  2         0      1516.       279.         0  0.0286
##  3         0       650.       444          0  0.0334
##  4         1      1048.       280          0  0.0250
##  5         1       849.       469.         0  0.0404
##  6         1       832.       572          0  0.910 
##  7         0      1777.       279.       727. 0.0250
##  8         0       858.       517          0  0.644 
##  9         1      1084.       675          0  0.0224
## 10         0      3493.       938.         0  0.866 
## # ... with 7,425 more rows, and 2 more variables:
## #   num_imgs <dbl>, num_keywords <dbl>
…
Ensemble Model

From the past homework assigment, it seems that each of the ensemble methods that we covered are equally efficient. I am going to use the Random Forest model to fit my data. Overall, Random Forest is better than bagging and boosting trees take longer to do. I will add a class variable (less than 1400, more than 1400) that I will predict on the test data.

Fix Train and Test Data

dataTrain <- dataTrain %>% mutate(group = ifelse(shares <= 1400, "less than 1400", "more than 1400")) %>%
  select(group, everything()) %>% collect()

dataTrain$group <- as.factor(dataTrain$group)

dataTrain

## # A tibble: 5,204 x 8
##    group shares kw_avg_avg kw_avg_min kw_min_avg
##    <fct>  <dbl>      <dbl>      <dbl>      <dbl>
##  1 less~    814      2501.       80.2      1545.
##  2 less~    688      2569.      179        1912.
##  3 less~   1300      3133.      343.       2541.
##  4 more~ 105400      5302.      700.       2917.
##  5 more~   5300      4745.      136.       3310.
##  6 less~   1100      2429.      484.       1759 
##  7 more~   1700      3769.      519           0 
##  8 more~   1500      2564.      230.       1626.
##  9 more~  11700      5303.      127.       3580.
## 10 more~   2100      4319.      139.          0 
## # ... with 5,194 more rows, and 3 more variables:
## #   LDA_03 <dbl>, num_imgs <dbl>, num_keywords <dbl>
…
